<svg viewBox="0 0 22 23" xmlns="http://www.w3.org/2000/svg">
    <g class="main" fill="#8a8fa8">
        <path d="m3.25 2.16666667h18.9583333c.5983085 0 1.0833334.48502485 1.0833334 1.08333333v12.4583333h-21.12500003v-12.4583333c0-.59830848.48502485-1.08333333 1.08333333-1.08333333z" />
    </g>
    <g fill="#ebebf5" class="second">
        <path d="m2.166667 17.875h21.125v2.166667h-21.125z"/>
        <path d="m2.166667 22.208333h21.125v2.166667h-21.125z"/>
    </g>
</svg>
