<svg viewBox="0 0 26 22" xmlns="http://www.w3.org/2000/svg">
    <g fill="none" fill-rule="evenodd">
        <path d="m.270833-1.729167h25.458333v25.458333h-25.458333z" opacity="0" stroke="#000" stroke-width=".541667"/>
        <rect fill="#ebebf5" height="15.708333" rx="1.083333" width="21.125" x="4.333333" y="5.583333"/>
        <rect fill="#8a8fa9" height="15.708333" rx="1.083333" width="21.125" x=".541667" y=".708333"/>
        <path d="m.541667 11h21.125v2.166667h-21.125z" fill="#ebebf5"/>
    </g>
</svg>
