<svg viewBox="0 0 28 23" fill="none" xmlns="http://www.w3.org/2000/svg">
<path d="M14 1.22392e-06L28 23L-1.80397e-06 23L14 1.22392e-06Z" fill="currentColor"/>
<rect x="13" y="7" width="2" height="10" fill="#fff"/>
<circle cx="14" cy="20" r="1" fill="#fff"/>
</svg>
