<svg viewBox="0 0 20 20" xmlns="http://www.w3.org/2000/svg">
<g fill="none" fill-rule="evenodd">
<g stroke="currentColor" stroke-linecap="round" stroke-linejoin="round" stroke-width="1.3" transform="translate(4 3)">
<path d="m0 2.6h1.3 10.4"/>
<path d="m10.4 2.6v9.1c0 .7179702-.58202983 1.3-1.3 1.3h-6.5c-.71797017 0-1.3-.5820298-1.3-1.3v-9.1m1.95 0v-1.3c0-.71797017.58202983-1.3 1.3-1.3h2.6c.71797017 0 1.3.58202983 1.3 1.3v1.3"/>
<path d="m4.55 5.85v3.9"/>
<path d="m7.15 5.85v3.9"/>
</g>
</g>
</svg>