<svg viewBox="0 0 28 27" fill="none" xmlns="http://www.w3.org/2000/svg">
<circle cx="12" cy="12" r="11" stroke="currentColor" stroke-width="3"/>
<path d="M20 19L27 26" stroke="currentColor" stroke-width="3"/>
</svg>
