<svg viewBox="0 0 16 17" fill="none" xmlns="http://www.w3.org/2000/svg">
<path d="M0 16H16M2.88525 7.57895L7.7377 12.7719M7.7377 12.7719L12.5902 7.57895M7.7377 12.7719V0" stroke="currentColor"/>
</svg>
